{
  "PORT": 5500,
  "MONGO_URL": "mongodb+srv://mernapp:mernapp@cluster0.3mpbf.mongodb.net/mern?retryWrites=true&w=majority",
  "JWT_SECRET": "bahram94",
  "EXPIRES_DATE": "1h",
  "BASE_URL": "http://localhost:5500"
}